{
  "files": {
    "main.css": "/static/css/main.4116d58a.chunk.css",
    "main.js": "/static/js/main.ed2fe9bf.chunk.js",
    "main.js.map": "/static/js/main.ed2fe9bf.chunk.js.map",
    "runtime-main.js": "/static/js/runtime-main.9d0e16a2.js",
    "runtime-main.js.map": "/static/js/runtime-main.9d0e16a2.js.map",
    "static/js/2.2f5f5c34.chunk.js": "/static/js/2.2f5f5c34.chunk.js",
    "static/js/2.2f5f5c34.chunk.js.map": "/static/js/2.2f5f5c34.chunk.js.map",
    "static/js/3.5af5f745.chunk.js": "/static/js/3.5af5f745.chunk.js",
    "static/js/3.5af5f745.chunk.js.map": "/static/js/3.5af5f745.chunk.js.map",
    "index.html": "/index.html",
    "static/css/main.4116d58a.chunk.css.map": "/static/css/main.4116d58a.chunk.css.map",
    "static/js/2.2f5f5c34.chunk.js.LICENSE.txt": "/static/js/2.2f5f5c34.chunk.js.LICENSE.txt",
    "static/media/logo.48f13ed2.jpg": "/static/media/logo.48f13ed2.jpg"
  },
  "entrypoints": [
    "static/js/runtime-main.9d0e16a2.js",
    "static/js/2.2f5f5c34.chunk.js",
    "static/css/main.4116d58a.chunk.css",
    "static/js/main.ed2fe9bf.chunk.js"
  ]
}